{
  "_pkglts": {
    "auto_install": true,
    "install_front_end": "stdout",
    "use_prompts": false,
    "version": 13
  },
  "base": {
    "authors": [
      [
        "revesansparole",
        "revesansparole@gmail.com"
      ]
    ],
    "namespace": null,
    "pkgname": "flappy",
    "url": null
  },
  "coverage": {},
  "data": {
    "filetype": [
      ".json",
      ".ini"
    ],
    "use_ext_dir": false
  },
  "doc": {
    "description": "Flappy bird in python for fun and to learn AI",
    "fmt": "rst",
    "keywords": []
  },
  "git": {},
  "gitlab": {
    "owner": "{{ base.authors[0][0] }}",
    "project": "{{ base.pkgname }}",
    "server": "gitlab.com",
    "url": "https://{{ gitlab.server }}/{{ gitlab.owner }}/{{ gitlab.project }}"
  },
  "license": {
    "name": "cecill-c",
    "organization": "organization",
    "project": "{{ base.pkgname }}",
    "year": 2020
  },
  "pypi": {
    "classifiers": [
      "Development Status :: 2 - Pre-Alpha",
      "Intended Audience :: Developers",
      "License :: OSI Approved :: BSD License",
      "Natural Language :: English"
    ],
    "servers": [
      {
        "name": "pypi",
        "url": "https://upload.pypi.org/legacy/"
      },
      {
        "name": "test",
        "url": "https://testpypi.python.org/pypi"
      }
    ]
  },
  "pysetup": {
    "intended_versions": [
      "37"
    ]
  },
  "reqs": {
    "require": [
      {
        "name": "matplotlib"
      },
      {
        "name": "numpy"
      }
    ]
  },
  "sphinx": {
    "autodoc_dvlpt": true,
    "build_dir": "build/sphinx",
    "gallery": "",
    "theme": "default"
  },
  "src": {
    "namespace_method": "pkg_util"
  },
  "test": {
    "suite_name": "pytest"
  },
  "version": {
    "major": 0,
    "minor": 0,
    "post": 1
  }
}